…
…or retrieve the result as HTML code:

``` r


b[[2]]$dataframe
#> # A tibble: 36 x 7
#>    pmid     start   end word                     category identifier  color
#>    <chr>    <int> <int> <chr>                    <chr>    <chr>       <chr>
#>  1 23819906    31    36 CXCL9                    Gene     246759      green
#>  2 23819906    61    73 pancreatitis             Disease  MESH:D0101… red  
#>  3 23819906    85   114 trinitrobenzene sulfoni… Chemical MESH:D0143… blue 
#>  4 23819906   118   122 rats                     Species  10116       lime 
#>  5 23819906   200   212 pancreatitis             Disease  MESH:D0101… red  
#>  6 23819906   240   245 CXCL9                    Gene     246759      green
#>  7 23819906   249   261 pancreatitis             Disease  MESH:D0101… red  
#>  8 23819906   333   338 CXCL9                    Gene     246759      green
#>  9 23819906   374   386 pancreatitis             Disease  MESH:D0101… red  
#> 10 23819906   396   408 pancreatitis             Disease  MESH:D0101… red  
#> # … with 26 more rows
```
…
